Quartus_prj/simulation/questa/tb_key_filter.vcd
$date
	Sun Dec 28 01:54:06 2025
$end
$version
	Questa Intel Starter FPGA Edition Version 2023.3
$end
$timescale
	1ps
$end

$scope module tb_key_filter $end
$var reg 1 ! clk $end
$var reg 1 " rst_n $end
$var reg 1 # key_n $end
$var wire 1 $ key_state $end
$var wire 1 % key_flag $end
$var reg 1 & key_flag_stretch $end
$var reg 4 ' stretch_cnt [3:0] $end

$scope task bounce_press $end
$upscope $end

$scope task bounce_release $end
$upscope $end

$scope task clean_press $end
$var integer 32 ( stable_cycles $end
$upscope $end

$scope task clean_release $end
$var integer 32 ) stable_cycles $end
$upscope $end

$scope task short_press $end
$var integer 32 * hold_cycles $end
$upscope $end

$scope module dut $end
$var parameter 32 + CNT_MAX $end
$var parameter 32 , CNT_WIDTH $end
$var wire 1 - clk $end
$var wire 1 . rst_n $end
$var wire 1 / key_n $end
$var reg 1 0 key_state $end
$var reg 1 1 key_flag $end
$var reg 4 2 cnt [3:0] $end
$var reg 1 3 key_n_last $end
$upscope $end
$upscope $end
$enddefinitions $end
#0
$dumpvars
0!
0"
1#
0&
b0 '
00
01
b0 2
13
b1000 +
b100 ,
bx (
bx )
bx *
0$
0%
1/
0.
0-
$end
#10000
1!
1-
#20000
0!
0-
#30000
1!
1-
#40000
0!
0-
#50000
1!
1-
#60000
0!
0-
#70000
1!
1-
#80000
0!
0-
#90000
1!
1-
#100000
1"
0!
1.
0-
#110000
1!
1-
b1 2
#120000
0!
0-
#130000
1!
1-
b10 2
#140000
0!
0-
#150000
1!
1-
b11 2
#160000
0!
0-
#170000
1!
1-
b100 2
#180000
0!
0-
#190000
1!
1-
b101 2
#200000
0!
0-
#210000
1!
1-
b110 2
#220000
0!
0-
#230000
1!
1-
b111 2
#240000
0!
0-
#250000
1!
1-
b0 2
#260000
0!
0-
#270000
1!
1-
b1 2
#280000
0!
0-
#290000
1!
1-
b10 2
#300000
0!
0-
#310000
1!
1-
b11 2
#320000
0!
0-
#330000
1!
1-
b100 2
#337000
0#
0/
#340000
0!
0-
#342000
1#
1/
#349000
0#
0/
#350000
1!
1-
03
b0 2
#352000
1#
1/
#360000
0!
0-
#361000
0#
0/
#365000
1#
1/
#370000
1!
1-
13
#371000
0#
0/
#380000
0!
0-
#390000
1!
1-
03
#400000
0!
0-
#410000
1!
1-
b1 2
#420000
0!
0-
#430000
1!
1-
b10 2
#440000
0!
0-
#450000
1!
1-
b11 2
#460000
0!
0-
#470000
1!
1-
b100 2
#480000
0!
0-
#490000
1!
1-
b101 2
#500000
0!
0-
#510000
1!
1-
b110 2
#520000
0!
0-
#530000
1!
1-
b111 2
#540000
0!
0-
#550000
1!
1-
b0 2
10
11
1$
1%
#560000
0!
0-
#570000
1!
1-
01
b1 2
1&
b1010 '
0%
#580000
0!
0-
#590000
1!
1-
b10 2
b1001 '
#600000
0!
0-
#610000
1!
1-
b11 2
b1000 '
#620000
0!
0-
#630000
1!
1-
b100 2
b111 '
#640000
0!
0-
#650000
1!
1-
b101 2
b110 '
#660000
0!
0-
#670000
1!
1-
b110 2
b101 '
#680000
0!
0-
#690000
1!
1-
b111 2
b100 '
#700000
0!
0-
#710000
1!
1-
b0 2
b11 '
#720000
0!
0-
#730000
1!
1-
b1 2
b10 '
#740000
0!
0-
#750000
1!
1-
b10 2
b1 '
#760000
0!
0-
#770000
1!
1-
b11 2
b0 '
0&
#780000
0!
0-
#790000
1!
1-
b100 2
#800000
0!
0-
#810000
1!
1-
b101 2
#820000
0!
0-
#830000
1!
1-
b110 2
#840000
0!
0-
#850000
1!
1-
b111 2
#860000
0!
0-
#870000
1!
1-
b0 2
#880000
0!
0-
#890000
1!
1-
b1 2
#900000
0!
0-
#910000
1!
1-
b10 2
#920000
0!
0-
#930000
1!
1-
b11 2
#940000
0!
0-
#950000
1!
1-
b100 2
#960000
0!
0-
#970000
1!
1-
b101 2
#980000
0!
0-
#990000
1!
1-
b110 2
#1000000
0!
0-
#1010000
1!
1-
b111 2
#1020000
0!
0-
#1030000
1!
1-
b0 2
#1040000
0!
0-
#1050000
1!
1-
b1 2
#1060000
0!
0-
#1070000
1!
1-
b10 2
#1080000
0!
0-
#1090000
1!
1-
b11 2
#1100000
0!
0-
#1110000
1!
1-
b100 2
#1120000
0!
0-
#1130000
1!
1-
b101 2
#1140000
0!
0-
#1150000
1!
1-
b110 2
#1160000
0!
0-
#1170000
1!
1-
b111 2
#1180000
0!
0-
#1190000
1!
1-
b0 2
#1200000
0!
0-
#1210000
1!
1-
b1 2
#1220000
0!
0-
#1230000
1!
1-
b10 2
#1240000
0!
0-
#1250000
1!
1-
b11 2
#1260000
0!
0-
#1270000
1!
1-
b100 2
#1280000
0!
0-
#1290000
1!
1-
b101 2
#1300000
0!
0-
#1310000
1!
1-
b110 2
#1320000
0!
0-
#1330000
1!
1-
b111 2
#1340000
0!
0-
#1350000
1!
1-
b0 2
#1360000
0!
0-
#1370000
1!
1-
b1 2
#1380000
0!
0-
#1390000
1!
1-
b10 2
#1400000
0!
0-
#1410000
1!
1-
b11 2
#1411000
1#
1/
#1417000
0#
0/
#1420000
0!
0-
#1425000
1#
1/
#1429000
0#
0/
#1430000
1!
1-
b100 2
#1439000
1#
1/
#1440000
0!
0-
#1442000
0#
0/
#1449000
1#
1/
#1450000
1!
1-
13
b0 2
#1460000
0!
0-
#1470000
1!
1-
b1 2
#1480000
0!
0-
#1490000
1!
1-
b10 2
#1500000
0!
0-
#1510000
1!
1-
b11 2
#1520000
0!
0-
#1530000
1!
1-
b100 2
#1540000
0!
0-
#1550000
1!
1-
b101 2
#1560000
0!
0-
#1570000
1!
1-
b110 2
#1580000
0!
0-
#1590000
1!
1-
b111 2
#1600000
0!
0-
#1610000
1!
1-
b0 2
00
0$
#1620000
0!
0-
#1630000
1!
1-
b1 2
#1640000
0!
0-
#1650000
1!
1-
b10 2
#1660000
0!
0-
#1670000
1!
1-
b11 2
#1680000
0!
0-
#1690000
1!
1-
b100 2
#1700000
0!
0-
#1710000
1!
1-
b101 2
#1720000
0!
0-
#1730000
1!
1-
b110 2
#1740000
0!
0-
#1750000
1!
1-
b111 2
#1760000
0!
0-
#1770000
1!
1-
b0 2
#1780000
0!
0-
#1790000
1!
1-
b1 2
#1800000
0!
0-
#1810000
1!
1-
b10 2
#1820000
0!
0-
#1830000
1!
1-
b11 2
#1840000
0!
0-
#1850000
1!
1-
b100 2
#1860000
0!
0-
#1870000
1!
1-
b101 2
#1880000
0!
0-
#1890000
1!
1-
b110 2
#1900000
0!
0-
#1910000
1!
1-
b111 2
#1920000
0!
0-
#1930000
1!
1-
b0 2
#1940000
0!
0-
#1950000
1!
1-
b1 2
#1960000
0!
0-
#1970000
1!
1-
b10 2
#1980000
0!
0-
#1990000
1!
1-
b11 2
#2000000
0!
0-
#2010000
1!
1-
b100 2
#2020000
0!
0-
#2030000
1!
1-
b101 2
#2040000
0!
0-
#2050000
1!
1-
b110 2
#2060000
0!
0-
#2070000
1!
1-
b111 2
#2080000
0!
0-
#2090000
1!
1-
b0 2
#2100000
0!
0-
#2110000
1!
1-
b1 2
#2120000
0!
0-
#2130000
1!
1-
b10 2
#2140000
0!
0-
#2150000
1!
1-
b11 2
#2160000
0!
0-
#2170000
1!
1-
b100 2
#2180000
0!
0-
#2190000
1!
1-
b101 2
#2200000
0!
0-
#2210000
1!
1-
b110 2
#2220000
0!
0-
#2230000
1!
1-
b111 2
#2240000
0!
0-
#2250000
1!
1-
b0 2
#2260000
0!
0-
#2270000
1!
1-
b1 2
#2280000
0!
0-
#2290000
1!
1-
b10 2
#2300000
0!
0-
#2310000
1!
1-
b11 2
#2320000
0!
0-
#2330000
1!
1-
b100 2
#2340000
0!
0-
#2350000
1!
1-
b101 2
#2360000
0!
0-
#2370000
1!
1-
b110 2
#2380000
0!
0-
#2390000
1!
1-
b111 2
#2400000
0!
0-
#2410000
1!
1-
b0 2
#2420000
0!
0-
#2430000
1!
1-
b10100 (
0#
0/
b1 2
#2440000
0!
0-
#2450000
1!
1-
03
b0 2
#2460000
0!
0-
#2470000
1!
1-
b1 2
#2480000
0!
0-
#2490000
1!
1-
b10 2
#2500000
0!
0-
#2510000
1!
1-
b11 2
#2520000
0!
0-
#2530000
1!
1-
b100 2
#2540000
0!
0-
#2550000
1!
1-
b101 2
#2560000
0!
0-
#2570000
1!
1-
b110 2
#2580000
0!
0-
#2590000
1!
1-
b111 2
#2600000
0!
0-
#2610000
1!
1-
b0 2
10
11
1$
1%
#2620000
0!
0-
#2630000
1!
1-
01
b1 2
1&
b1010 '
0%
#2640000
0!
0-
#2650000
1!
1-
b10 2
b1001 '
#2660000
0!
0-
#2670000
1!
1-
b11 2
b1000 '
#2680000
0!
0-
#2690000
1!
1-
b100 2
b111 '
#2700000
0!
0-
#2710000
1!
1-
b101 2
b110 '
#2720000
0!
0-
#2730000
1!
1-
b110 2
b101 '
#2740000
0!
0-
#2750000
1!
1-
b111 2
b100 '
#2760000
0!
0-
#2770000
1!
1-
b0 2
b11 '
#2780000
0!
0-
#2790000
1!
1-
b1 2
b10 '
#2800000
0!
0-
#2810000
1!
1-
b10 2
b1 '
#2820000
0!
0-
#2830000
1!
1-
b10100 )
1#
1/
b11 2
b0 '
0&
#2840000
0!
0-
#2850000
1!
1-
13
b0 2
#2860000
0!
0-
#2870000
1!
1-
b1 2
#2880000
0!
0-
#2890000
1!
1-
b10 2
#2900000
0!
0-
#2910000
1!
1-
b11 2
#2920000
0!
0-
#2930000
1!
1-
b100 2
#2940000
0!
0-
#2950000
1!
1-
b101 2
#2960000
0!
0-
#2970000
1!
1-
b110 2
#2980000
0!
0-
#2990000
1!
1-
b111 2
#3000000
0!
0-
#3010000
1!
1-
b0 2
00
0$
#3020000
0!
0-
#3030000
1!
1-
b1 2
#3040000
0!
0-
#3050000
1!
1-
b10 2
#3060000
0!
0-
#3070000
1!
1-
b11 2
#3080000
0!
0-
#3090000
1!
1-
b100 2
#3100000
0!
0-
#3110000
1!
1-
b101 2
#3120000
0!
0-
#3130000
1!
1-
b110 2
#3140000
0!
0-
#3150000
1!
1-
b111 2
#3160000
0!
0-
#3170000
1!
1-
b0 2
#3180000
0!
0-
#3190000
1!
1-
b1 2
#3200000
0!
0-
#3210000
1!
1-
b10 2
#3220000
0!
0-
#3230000
1!
1-
b11 *
0#
0/
b11 2
#3240000
0!
0-
#3250000
1!
1-
03
b0 2
#3260000
0!
0-
#3270000
1!
1-
b1 2
#3280000
0!
0-
#3290000
1!
1-
1#
1/
b10 2
#3300000
0!
0-
#3310000
1!
1-
13
b0 2
#3320000
0!
0-
#3330000
1!
1-
b1 2
#3340000
0!
0-
#3350000
1!
1-
b10 2
#3360000
0!
0-
#3370000
1!
1-
b11 2
#3380000
0!
0-
#3390000
1!
1-
b100 2
#3400000
0!
0-
#3410000
1!
1-
b101 2
#3420000
0!
0-
#3430000
1!
1-
b110 2
#3440000
0!
0-
#3450000
1!
1-
b111 2
#3460000
0!
0-
#3470000
1!
1-
b0 2
#3480000
0!
0-
#3490000
1!
1-
b1 2
#3500000
0!
0-
#3510000
1!
1-
b10 2
#3520000
0!
0-
#3530000
1!
1-
b11 2
#3540000
0!
0-
#3550000
1!
1-
b100 2
#3560000
0!
0-
#3570000
1!
1-
b101 2
#3580000
0!
0-
#3590000
1!
1-
b110 2
#3600000
0!
0-
#3610000
1!
1-
b111 2
#3620000
0!
0-
#3630000
1!
1-
b0 2
#3640000
0!
0-
#3650000
1!
1-
b1 2
#3660000
0!
0-
#3670000
1!
1-
b10 2
#3680000
0!
0-
#3690000
1!
1-
b11 2
#3700000
0!
0-
#3710000
1!
1-
b100 2
#3720000
0!
0-
#3730000
1!
1-
b101 2
#3740000
0!
0-
#3750000
1!
1-
b110 2
#3760000
0!
0-
#3770000
1!
1-
b111 2
#3780000
0!
0-
#3790000
1!
1-
b0 2
#3800000
0!
0-
#3810000
1!
1-
b1 2
#3820000
0!
0-
#3830000
1!
1-
b10 2
#3840000
0!
0-
#3850000
1!
1-
b11 2
#3860000
0!
0-
#3870000
1!
1-
b100 2
#3880000
0!
0-
#3890000
1!
1-
b101 2
#3900000
0!
0-
#3910000
1!
1-
b110 2
#3920000
0!
0-
#3930000
1!
1-
b111 2
#3940000
0!
0-
#3950000
1!
1-
b0 2
#3960000
0!
0-
#3970000
1!
1-
b1 2
#3980000
0!
0-
#3990000
1!
1-
b10 2
#4000000
0!
0-
#4010000
1!
1-
b11 2
#4020000
0!
0-
#4030000
1!
1-
b100 2
#4040000
0!
0-
#4050000
1!
1-
b101 2
#4060000
0!
0-
#4070000
1!
1-
b110 2
#4080000
0!
0-
#4090000
1!
1-
b111 2
#4100000
0!
0-
#4110000
1!
1-
b0 2
#4120000
0!
0-
#4130000
1!
1-
b1 2
#4140000
0!
0-
#4150000
1!
1-
b10 2
#4160000
0!
0-
#4170000
1!
1-
b11 2
#4180000
0!
0-
#4190000
1!
1-
b100 2
#4200000
0!
0-
#4210000
1!
1-
b101 2
#4220000
0!
0-
#4230000
1!
1-
b110 2
#4240000
0!
0-
#4250000
1!
1-
b111 2
#4260000
0!
0-
#4270000
1!
1-
b0 2
#4280000
0!
0-
#4290000
1!
1-
b1 2
#4300000
0!
0-
#4310000
1!
1-
b10 2
#4320000
0!
0-
#4330000
1!
1-
b11 2
#4340000
0!
0-
#4350000
1!
1-
b100 2
#4360000
0!
0-
#4370000
1!
1-
b101 2
#4380000
0!
0-
#4390000
1!
1-
b110 2
#4400000
0!
0-
#4410000
1!
1-
b111 2
#4420000
0!
0-
#4430000
1!
1-
b0 2
#4440000
0!
0-
#4450000
1!
1-
b1 2
#4460000
0!
0-
#4470000
1!
1-
b10 2
#4480000
0!
0-
#4490000
1!
1-
b11 2
#4500000
0!
0-
#4510000
1!
1-
b100 2
#4520000
0!
0-
#4530000
1!
1-
b101 2
#4540000
0!
0-
#4550000
1!
1-
b110 2
#4560000
0!
0-
#4570000
1!
1-
b111 2
#4580000
0!
0-
#4590000
1!
1-
b0 2
#4600000
0!
0-
#4610000
1!
1-
b1 2
#4620000
0!
0-
#4630000
1!
1-
b10 2
#4640000
0!
0-
#4650000
1!
1-
b11 2
#4660000
0!
0-
#4670000
1!
1-
b100 2
#4680000
0!
0-
#4690000
1!
1-
b101 2
#4700000
0!
0-
#4710000
1!
1-
b110 2
#4720000
0!
0-
#4730000
1!
1-
b111 2
#4740000
0!
0-
#4750000
1!
1-
b0 2
#4760000
0!
0-
#4770000
1!
1-
b1 2
#4780000
0!
0-
#4790000
1!
1-
b10 2
#4800000
0!
0-
#4810000
1!
1-
b11 2
#4820000
0!
0-
#4830000
1!
1-
b100 2
#4840000
0!
0-
#4850000
1!
1-
b101 2
#4860000
0!
0-
#4870000
1!
1-
b110 2
#4880000
0!
0-
#4890000
1!
1-
b111 2
#4900000
0!
0-
#4910000
1!
1-
b0 2
#4920000
0!
0-
#4930000
1!
1-
b1 2
#4940000
0!
0-
#4950000
1!
1-
b10 2
#4960000
0!
0-
#4970000
1!
1-
b11 2
#4980000
0!
0-
#4990000
1!
1-
b100 2
#5000000
0!
0-
#5010000
1!
1-
b101 2
#5020000
0!
0-
#5030000
1!
1-
b110 2
#5040000
0!
0-
#5050000
1!
1-
b111 2
#5060000
0!
0-
#5070000
1!
1-
b0 2
#5080000
0!
0-
#5090000
1!
1-
b1 2
#5100000
0!
0-
#5110000
1!
1-
b10 2
#5120000
0!
0-
#5130000
1!
1-
b11 2
#5140000
0!
0-
#5150000
1!
1-
b100 2
#5160000
0!
0-
#5170000
1!
1-
b101 2
#5180000
0!
0-
#5190000
1!
1-
b110 2
#5200000
0!
0-
#5210000
1!
1-
b111 2
#5220000
0!
0-
#5230000
1!
1-
b0 2
#5240000
0!
0-
#5250000
1!
1-
b1 2
#5260000
0!
0-
#5270000
1!
1-
b10 2
#5280000
0!
0-
#5290000
1!
1-
b11 2
#5300000
0!
0-
#5310000
1!
1-
b100 2
#5320000
0!
0-
#5330000
1!
1-
b101 2
#5340000
0!
0-
#5350000
1!
1-
b110 2
#5360000
0!
0-
#5370000
1!
1-
b111 2
#5380000
0!
0-
#5390000
1!
1-
b0 2
#5400000
0!
0-
#5410000
1!
1-
b1 2
#5420000
0!
0-
#5430000
1!
1-
b10 2
#5440000
0!
0-
#5450000
1!
1-
b11 2
#5460000
0!
0-
#5470000
1!
1-
b100 2
